…
city_nest
```

    ## # A tibble: 47 × 4
    ##    city_state        OR OR_lower OR_upper
    ##    <chr>          <dbl>    <dbl>    <dbl>
    ##  1 Albuquerque,NM 1.77    1.13      2.40 
    ##  2 Atlanta,GA     1.00    0.681     1.32 
    ##  3 Baltimore,MD   0.426   0.198     0.653
    ##  4 Baton Rouge,LA 0.381  -0.122     0.885
    ##  5 Birmingham,AL  0.870   0.521     1.22 
    ##  6 Boston,MA      0.674   0.138     1.21 
    ##  7 Buffalo,NY     0.521   0.0289    1.01 
    ##  8 Charlotte,NC   0.884   0.496     1.27 
    ##  9 Chicago,IL     0.410   0.243     0.577
    ## 10 Cincinnati,OH  0.400  -0.0423    0.842
    ## # … with 37 more rows
…
